…
# show data
bw_clean
```

    ## # A tibble: 4,342 x 20
    ##      bwt babysex bhead blength delwt fincome frace gaweeks malform menarche
    ##    <dbl> <fct>   <dbl>   <dbl> <dbl>   <dbl> <fct>   <dbl> <fct>      <dbl>
    ##  1  3629 female     34      51   177      35 White    39.9 absent        13
    ##  2  3062 male       34      48   156      65 Black    25.9 absent        14
    ##  3  3345 female     36      50   148      85 White    39.9 absent        12
    ##  4  3062 male       34      52   157      55 White    40   absent        14
    ##  5  3374 female     34      52   156       5 White    41.6 absent        13
    ##  6  3374 male       33      52   129      55 White    40.7 absent        12
    ##  7  2523 female     33      46   126      96 Black    40.3 absent        14
    ##  8  2778 female     33      49   140       5 White    37.4 absent        12
    ##  9  3515 male       36      52   146      85 White    40.3 absent        11
    ## 10  3459 male       33      50   169      75 Black    40.7 absent        12
    ## # … with 4,332 more rows, and 10 more variables: mheight <dbl>,
    ## #   momage <dbl>, mrace <fct>, parity <dbl>, pnumlbw <dbl>, pnumsga <dbl>,
    ## #   ppbmi <dbl>, ppwt <dbl>, smoken <dbl>, wtgain <dbl>
…
